EE214 - Experiment 3/Submission/TwoBitSubtractor/subtractor.vcd
$date
  Tue Feb  7 17:12:38 2017
$end
$version
  GHDL v0
$end
$timescale
  1 fs
$end
$var reg 4 ! input_vector[3:0] $end
$var reg 2 " output_vector[1:0] $end
$scope module dut_instance $end
$var reg 4 # input_vector[3:0] $end
$var reg 2 $ output_vector[1:0] $end
$scope module add_instance $end
$var reg 1 % x1 $end
$var reg 1 & x0 $end
$var reg 1 ' y1 $end
$var reg 1 ( y0 $end
$var reg 1 ) b1 $end
$var reg 1 * b0 $end
$var reg 1 + s0 $end
$var reg 1 , s1 $end
$upscope $end
$upscope $end
$enddefinitions $end
#0
b0000 !
b00 "
b0000 #
b00 $
0%
0&
0'
0(
0)
0*
0+
0,
#1000000
#5000000
b0001 !
b11 "
b0001 #
b11 $
1(
1)
1*
1,
#6000000
#10000000
b0010 !
b10 "
b0010 #
b10 $
1'
0(
0*
1+
0,
#11000000
#15000000
b0011 !
b01 "
b0011 #
b01 $
1(
0)
1*
1,
#16000000
#20000000
b0100 !
b0100 #
1&
0'
0(
0+
0,
#21000000
#25000000
b0101 !
b00 "
b0101 #
b00 $
1(
0*
#26000000
#30000000
b0110 !
b11 "
b0110 #
b11 $
1'
0(
1)
1*
1+
#31000000
#35000000
b0111 !
b10 "
b0111 #
b10 $
1(
0*
#36000000
#40000000
b1000 !
b1000 #
1%
0&
0'
0(
#41000000
#45000000
b1001 !
b01 "
b1001 #
b01 $
1(
0)
1*
1,
#46000000
#50000000
b1010 !
b00 "
b1010 #
b00 $
1'
0(
0*
0+
0,
#51000000
#55000000
b1011 !
b11 "
b1011 #
b11 $
1(
1)
1*
1,
#56000000
#60000000
b1100 !
b1100 #
1&
0'
0(
1+
0,
#61000000
#65000000
b1101 !
b10 "
b1101 #
b10 $
1(
0*
#66000000
#70000000
b1110 !
b01 "
b1110 #
b01 $
1'
0(
0)
1*
0+
#71000000
#75000000
b1111 !
b00 "
b1111 #
b00 $
1(
0*
